{
    "entries": [
        {
            "dn": "ou=roles,ou=urmel,ou=testing,dc=example,dc=com",
            "attributes": {
                "objectClass": ["organizationalUnit"]
            },
            "raw": {
                "objectClass": ["organizationalUnit"]
            }
        },
        {
            "dn": "cn=devs,ou=roles,ou=urmel,ou=testing,dc=example,dc=com",
            "attributes": {
                "objectClass": ["groupOfUniqueNames"],
                "cn": ["devs"],
                "uniqueMember": [
                    "uid=steve,ou=people,ou=urmel,ou=testing,dc=example,dc=com"
                ]
            },
            "raw": {
                "objectClass": ["groupOfUniqueNames"],
                "cn": ["devs"],
                "uniqueMember": [
                    "uid=steve,ou=people,ou=urmel,ou=testing,dc=example,dc=com"
                ]
            }
        },
        {
            "dn": "cn=qa,ou=roles,ou=urmel,ou=testing,dc=example,dc=com",
            "attributes": {
                "objectClass": ["groupOfUniqueNames"],
                "cn": ["qa"]
            },
            "raw": {
                "objectClass": ["groupOfUniqueNames"],
                "cn": ["qa"]
            }
        },
        {
            "dn": "ou=people,ou=urmel,ou=testing,dc=example,dc=com",
            "attributes": {
                "objectClass": ["organizationalUnit"]
            },
            "raw": {
                "objectClass": ["organizationalUnit"]
            }
        },
        {
            "dn": "uid=jon,ou=people,ou=urmel,ou=testing,dc=example,dc=com",
            "attributes": {
                "objectClass": ["inetOrgPerson", "mozillaAbPersonAlpha"],
                "uid": ["jon"],
                "cn": ["jon"]
            },
            "raw": {
                "objectClass": ["inetOrgPerson", "mozillaAbPersonAlpha"],
                "uid": ["jon"],
                "cn": ["jon"]
            }
        },
        {
            "dn": "uid=mo,ou=people,ou=urmel,ou=testing,dc=example,dc=com",
            "attributes": {
                "objectClass": ["inetOrgPerson", "mozillaAbPersonAlpha"],
                "uid": ["mo"],
                "cn": ["mo"]
            },
            "raw": {
                "objectClass": ["inetOrgPerson", "mozillaAbPersonAlpha"],
                "uid": ["mo"],
                "cn": ["mo"]
            }
        },
        {
            "dn": "uid=steve,ou=people,ou=urmel,ou=testing,dc=example,dc=com",
            "attributes": {
                "objectClass": ["inetOrgPerson", "mozillaAbPersonAlpha"],
                "uid": ["steve"],
                "cn": ["steve"]
            },
            "raw": {
                "objectClass": ["inetOrgPerson", "mozillaAbPersonAlpha"],
                "uid": ["steve"],
                "cn": ["steve"]
            }
        },
        {
            "dn": "uid=test,ou=accounts,ou=ems,ou=realms,ou=keycloak,ou=external,dc=example,dc=com",
            "attributes": {
                "objectClass": ["inetOrgPerson", "organizationalPerson"],
                "uid": ["test@example.com"],
                "cn": ["Test"],
                "givenName": ["Test"],
                "sn": ["Test"],
                "userPassword": ["password1234"]
            },
            "raw": {
                "objectClass": ["inetOrgPerson", "organizationalPerson"],
                "uid": ["test@example.com"],
                "cn": ["Test"],
                "givenName": ["Test"],
                "sn": ["Test"],
                "userPassword": ["password1234"]
            }
        }
    ]
}
