{
    "raw": {
        "altServer": [],
        "configContext": [
            "cn=config"
        ],
        "entryDN": [
            ""
        ],
        "monitorContext": [
            "cn=Monitor"
        ],
        "namingContexts": [
            "dc=example,dc=com",
            "cn=accesslog-data",
            "cn=accesslog-conf"
        ],
        "objectClass": [
            "top",
            "OpenLDAProotDSE"
        ],
        "structuralObjectClass": [
            "OpenLDAProotDSE"
        ],
        "subschemaSubentry": [
            "cn=Subschema"
        ],
        "supportedCapabilities": [],
        "supportedControl": [
            "1.3.6.1.4.1.4203.1.9.1.1",
            "2.16.840.1.113730.3.4.18",
            "2.16.840.1.113730.3.4.2",
            "1.3.6.1.4.1.4203.1.10.1",
            "1.3.6.1.1.22",
            "1.2.840.113556.1.4.319",
            "1.2.826.0.1.3344810.2.3",
            "1.3.6.1.1.13.2",
            "1.3.6.1.1.13.1",
            "1.3.6.1.1.12"
        ],
        "supportedExtension": [
            "1.3.6.1.4.1.1466.20037",
            "1.3.6.1.4.1.4203.1.11.1",
            "1.3.6.1.4.1.4203.1.11.3",
            "1.3.6.1.1.8"
        ],
        "supportedFeatures": [
            "1.3.6.1.1.14",
            "1.3.6.1.4.1.4203.1.5.1",
            "1.3.6.1.4.1.4203.1.5.2",
            "1.3.6.1.4.1.4203.1.5.3",
            "1.3.6.1.4.1.4203.1.5.4",
            "1.3.6.1.4.1.4203.1.5.5"
        ],
        "supportedLDAPVersion": [
            "3"
        ],
        "supportedSASLMechanisms": [
            "PLAIN",
            "GSSAPI"
        ],
        "vendorName": [],
        "vendorVersion": []
    },
    "type": "DsaInfo"
}
